{
    "nombre":"clarin",
    "version":"1.7",
    "perfil":"CLARIN",
    "ambientes":[
        {
            "nombre":"uat",
            "s3CodeBucket":"aper.clarin-prod",
            "s3CodeDump":"clarin-uat.tgz",
            "s3DbBucket":"aper.clarin-dumps",
            "s3DbDump":"dev/clarinuat.sql.gz",
            "databaseName":"clarinuat",
            "databaseVersion":"8",
            "imgS3":false
        },
        {
            "nombre":"dev",
            "s3CodeBucket":"aper.clarin-dumps",
            "s3CodeDump":"dev/clarin-dev.tgz",
            "s3DbBucket":"aper.clarin-dumps",
            "s3DbDump":"dev/clarindev.sql.gz",
            "databaseName":"clarindev",
            "databaseVersion":"8",
            "imgS3":false
        }
    ]
}