{
    "nombre":"galicia",
    "version":"1.7",
    "perfil":"GALICIA",
    "ambientes":[
        {
            "nombre":"dev",
            "s3CodeBucket":"aper.galicia-dumps",
            "s3CodeDump":"dev/galicia-dev.tgz",
            "s3DbBucket":"aper.galicia-dumps",
            "s3DbDump":"dev/galiciadev.sql.gz",
            "databaseName":"galiciadev",
            "databaseVersion":"8",
            "imgS3":false
        },
        {
            "nombre":"uat",
            "s3CodeBucket":"aper.galicia-dumps",
            "s3CodeDump":"dev/galicia-uat.tgz",
            "s3DbBucket":"aper.galicia-dumps",
            "s3DbDump":"dev/galiciauat.sql.gz",
            "databaseName":"galiciauat",
            "databaseVersion":"8",
            "imgS3":false
        }

    ]
}