{
    "nombre":"icbc",
    "version":"1.6",
    "perfil":"ICBC",
    "ambientes":[
        {
            "nombre":"dev",
            "s3CodeBucket":"aper.icbc-dumps",
            "s3CodeDump":"dev/icbc-dev.tgz",
            "s3DbBucket":"aper.icbc-dumps",
            "s3DbDump":"dev/icbcdev.sql.gz",
            "databaseName":"icbc",
            "databaseVersion":"8",
            "imgS3":false
        },
        {
            "nombre":"uat",
            "s3CodeBucket":"aper.icbc-dumps",
            "s3CodeDump":"uat/icbc-dev.tgz",
            "s3DbBucket":"aper.icbc-dumps",
            "s3DbDump":"uat/icbcmalluat.sql.gz",
            "databaseName":"icbcmalluat",
            "databaseVersion":"8",
            "imgS3":false
        }
    ]
}
