{
    "nombre":"tiendaclic",
    "version":"1.6",
    "perfil":"TIENDACLIC",
    "ambientes":[
        {
            "nombre":"dev",
            "s3CodeBucket":"aper.tiendaclic-dumps",
            "s3CodeDump":"dev/tiendaclic-dev.tgz",
            "s3DbBucket":"aper.tiendaclic-dumps",
            "s3DbDump":"dev/tiendaclicdev.sql.gz",
            "databaseName":"tiendaclicdev",
            "databaseVersion":"8",
            "imgS3":false
        },
        {
            "nombre":"uat",
            "s3CodeBucket":"aper.tiendaclic-dumps",
            "s3CodeDump":"dev/tiendaclic-uat.tgz",
            "s3DbBucket":"aper.tiendaclic-dumps",
            "s3DbDump":"dev/tiendaclicuat.sql.gz",
            "databaseName":"tiendaclicuat",
            "databaseVersion":"8",
            "imgS3":false
        }
    ]
}