{
    "nombre":"galicia",
    "version":"1.7",
    "s3Bucket":"aper.galicia-dev",
    "s3Dump":"dump/galiciauat.sql.gz",
    "profile":"galicia-developer",
    "rol":"developers-ssm",
    "repos":[
        {
            "url":"https://gitlab.com/apernet/stores/base/cores/1.7.git",
            "branch":"develop",
            "dir":""
        },
        {
            "url":"https://gitlab.com/apernet/stores/base/backoffice/1.7.git",
            "branch":"develop",
            "dir":"backoffice/"
        },
        {
            "url":"https://gitlab.com/apernet/stores/galicia/override.git",
            "branch":"develop",
            "dir":"override/"
        },
        {
            "url":"https://gitlab.com/apernet/stores/base/themes/1.7.git",
            "branch":"develop",
            "dir":"themes/classic-rocket"
        },
        {
            "url":"https://gitlab.com/apernet/stores/galicia/theme.git",
            "branch":"develop",
            "dir":"themes/child"
        },
       
        {
            "url":"https://gitlab.com/apernet/stores/base/modules/relatedfree.git",
            "branch":"relatedProduct",
            "dir":"modules/relatedfree"
        },

        {
            "url":"https://gitlab.com/apernet/stores/galicia/modules/galicialogin.git",
            "branch":"feature/NuevoFlujo",
            "dir":"modules/galicialogin"
        },

        {
            "url":"https://gitlab.com/apernet/stores/base/modules/aperpoint.git",
            "branch":"develop",
            "dir":"modules/aperpoint"
        },

        {
            "url":"https://gitlab.com/apernet/stores/base/modules/productsmarks.git",
            "branch":"develop",
            "dir":"modules/productsmarks"
        },

        {
            "url":"https://gitlab.com/apernet/stores/base/modules/homecarousel.git",
            "branch":"develop",
            "dir":"modules/homecarousel"
        },

        {
            "url":"https://gitlab.com/apernet/stores/base/modules/aperpayment.git",
            "branch":"feature/aperpayment17",
            "dir":"modules/aperpayment"
        },


        {
            "url":"https://gitlab.com/apernet/stores/base/modules/shippingcostbysupplier.git",
            "branch":"feature/invex",
            "dir":"modules/shippingcostbysupplier"
        },


        {
            "url":"https://gitlab.com/apernet/stores/base/modules/zonemegamenu.git",
            "branch":"develop",
            "dir":"modules/zonemegamenu"
        },

        {
            "url":"https://gitlab.com/apernet/presta-unablelogin.git",
            "branch":"master",
            "dir":"modules/unablelogin"
        },

        {
            "url":"https://gitlab.com/apernet/stores/base/modules/employeesecurepassword",
            "branch":"feature/Presta17",
            "dir":"modules/employeesecurepassword"
        },

        {
            "url":"https://gitlab.com/apernet/stores/base/modules/aperstore.git",
            "branch":"develop",
            "dir":"modules/aperstore"
        },

        {
            "url":"https://gitlab.com/apernet/stores/base/modules/tiendasoficiales.git",
            "branch":"develop",
            "dir":"modules/tiendasoficiales"
        },

        {
            "url":"https://gitlab.com/apernet/stores/base/modules/productorder.git",
            "branch":"feature/presta17",
            "dir":"modules/productorder"
        },

        {
            "url":"https://gitlab.com/apernet/stores/base/modules/productshippingcostcalculator.git",
            "branch":"develop",
            "dir":"modules/productshippingcostcalculator"
        },

        {
            "url":"https://gitlab.com/apernet/stores/base/modules/ps_searchbarjqauto.git",
            "branch":"master",
            "dir":"modules/ps_searchbarjqauto"
        },

        {
            "url":"https://gitlab.com/apernet/stores/base/modules/ps_imageslider.git",
            "branch":"develop",
            "dir":"modules/ps_imageslider"
        },

        
        {
            "url":"https://gitlab.com/apernet/stores/base/modules/customhome.git",
            "branch":"galicia-custom",
            "dir":"modules/customhome"
        },

        {
            "url":"https://gitlab.com/apernet/stores/base/modules/customersecurepassword.git",
            "branch":"feature/Presta17",
            "dir":"modules/customersecurepassword"
        }
        
    ]
}